[
{
    "model": "main.tramitacao",
    "pk": 1,
    "fields": {
        "id_site": "2350184",
        "data": "2016-07-14",
        "projeto": 1,
        "local": "Comiss\u00e3o de Assuntos Econ\u00f4micos",
        "descricao": "MAT\u00c9RIA COM A RELATORIA \u2014 Em 13/7/2016, foram apresentadas a Emenda n\u00ba 32 e as subemendas n\u00bas 1 e 2 \u00e0 Emenda n\u00ba 31-CCT-CMA, de autoria da senadora Marta Suplicy. (Tramitam em conjunto os Projetos de Lei do Senado n\u00bas 330 de 2013; e 131 e 181 de 2014)"
    }
},
{
    "model": "main.tramitacao",
    "pk": 3,
    "fields": {
        "id_site": "2379539",
        "data": "2017-04-27",
        "projeto": 3,
        "local": "Comiss\u00e3o de Transpar\u00eancia, Governan\u00e7a, Fiscaliza\u00e7\u00e3o e Controle e Defesa do Consumidor",
        "descricao": "MAT\u00c9RIA COM A RELATORIA \u2014 O Presidente da CTFC, Senador ATA\u00cdDES OLIVEIRA, designa o Senador Romero Juc\u00e1 relator da mat\u00e9ria. O processado f\u00edsico permanece na Comiss\u00e3o."
    }
},
{
    "model": "main.tramitacao",
    "pk": 4,
    "fields": {
        "id_site": "2350183",
        "data": "2016-07-14",
        "projeto": 4,
        "local": "Comiss\u00e3o de Assuntos Econ\u00f4micos",
        "descricao": "MAT\u00c9RIA COM A RELATORIA \u2014 Em 13/7/2016, foram apresentadas a Emenda n\u00ba 32 e as subemendas n\u00bas 1 e 2 \u00e0 Emenda n\u00ba 31-CCT-CMA, de autoria da senadora Marta Suplicy. (Tramitam em conjunto os Projetos de Lei do Senado n\u00bas 330 de 2013; e 131 e 181 de 2014)"
    }
},
{
    "model": "main.tramitacao",
    "pk": 5,
    "fields": {
        "id_site": "2371895",
        "data": "2017-03-17",
        "projeto": 5,
        "local": "Coordena\u00e7\u00e3o de Arquivo",
        "descricao": "Recebido e arquivado."
    }
},
{
    "model": "main.tramitacao",
    "pk": 6,
    "fields": {
        "id_site": "2372280",
        "data": "2017-03-21",
        "projeto": 6,
        "local": "Secretaria de Expediente",
        "descricao": "REMETIDA \u00c0 C\u00c2MARA DOS DEPUTADOS \u2014 Remetido Of\u00edcio SF n\u00ba 172, de 21/03/17, ao Senhor Primeiro-Secret\u00e1rio da C\u00e2mara dos Deputados, encaminhando aut\u00f3grafos do projeto para revis\u00e3o, nos termos do art. 65 da Constitui\u00e7\u00e3o Federal. (fls. 35 a 36)."
    }
},
{
    "model": "main.tramitacao",
    "pk": 7,
    "fields": {
        "id_site": "2390135",
        "data": "2017-07-06",
        "projeto": 7,
        "local": "Comiss\u00e3o de Ci\u00eancia, Tecnologia, Inova\u00e7\u00e3o, Comunica\u00e7\u00e3o e Inform\u00e1tica",
        "descricao": "PRONTA PARA A PAUTA NA COMISS\u00c3O \u2014 Devolvido pelo relator, Senador Otto Alencar, com relat\u00f3rio concluindo pela aprova\u00e7\u00e3o do projeto, na forma do substitutivo oferecido, estando em condi\u00e7\u00f5es de ser inclu\u00eddo em pauta."
    }
},
{
    "model": "main.tramitacao",
    "pk": 8,
    "fields": {
        "id_site": "('cbeee7df4fb817e6e524edb6b8d0a01c',)",
        "data": "2016-11-09",
        "projeto": 8,
        "local": "Comiss\u00e3o Especial destinada a proferir parecer ao Projeto de Lei n\u00ba 4060, de 2012, do Dep. Milton Monti, que \"disp\u00f5e sobre o tratamento de dados pessoais e d\u00e1 outras provid\u00eancias\", e apensado ( PL406012 )",
        "descricao": "Recebimento pela PL406012, apensado ao PL-4060/2012"
    }
},
{
    "model": "main.tramitacao",
    "pk": 9,
    "fields": {
        "id_site": "('ef5e1815da423d1a0640101237a568e3',)",
        "data": "2016-10-27",
        "projeto": 8,
        "local": "Mesa Diretora da C\u00e2mara dos Deputados ( MESA )",
        "descricao": "Apense-se a este(a) o(a) PL-6291/2016. Inteiro teor Apense-se a este(a) o(a) PL-6291/2016. Inteiro teor"
    }
},
{
    "model": "main.tramitacao",
    "pk": 10,
    "fields": {
        "id_site": "('2ea98ea300165e2b43a2e8a1c2589202',)",
        "data": "2016-08-01",
        "projeto": 8,
        "local": "Comiss\u00e3o de Constitui\u00e7\u00e3o e Justi\u00e7a e de Cidadania ( CCJC )",
        "descricao": "Devolu\u00e7\u00e3o \u00e0 CCP."
    }
},
{
    "model": "main.tramitacao",
    "pk": 11,
    "fields": {
        "id_site": "('25300a005b03e067a63a49332f39354f',)",
        "data": "2016-07-19",
        "projeto": 8,
        "local": "COORDENA\u00c7\u00c3O DE COMISS\u00d5ES PERMANENTES ( CCP )",
        "descricao": "\u00c0 CCTCI o Memorando n\u00ba 194/16 - COPER solicitando apensar o PL 5276/16 ao 4060/12 e encaminhando etiqueta com novo despacho aposto ao 4060/12. Inteiro teor"
    }
},
{
    "model": "main.tramitacao",
    "pk": 12,
    "fields": {
        "id_site": "('209eba8dc4142162e4e881ef771c6028',)",
        "data": "2016-07-18",
        "projeto": 8,
        "local": "Mesa Diretora da C\u00e2mara dos Deputados ( MESA )",
        "descricao": "Deferido o Requerimento n. 4.934/2016, conforme despacho do seguinte teor: \u201cDefiro o Requerimento n. 4.934/2016. Apense-se o Projeto de Lei n. 5.276/2016 ao Projeto de Lei n. 4.060/2012, nos termos dos arts. 142, caput, e 143, II, b, do Regimento Interno da C\u00e2mara dos Deputados. Publique-se. Oficie-se.[ATUALIZA\u00c7\u00c3O DO DESPACHO DO PL n. 4.060/2012: \u00c0 CCTCI, \u00e0 CTASP e \u00e0 CCJC (m\u00e9rito e art. 54 do RICD). Proposi\u00e7\u00e3o sujeita \u00e0 aprecia\u00e7\u00e3o do Plen\u00e1rio. Regime de tramita\u00e7\u00e3o: prioridade]. Inteiro teor"
    }
},
{
    "model": "main.tramitacao",
    "pk": 13,
    "fields": {
        "id_site": "('6e54515ad0c723dc8c21e6c50783119b',)",
        "data": "2016-07-14",
        "projeto": 8,
        "local": "PLEN\u00c1RIO ( PLEN )",
        "descricao": "Apresenta\u00e7\u00e3o do Requerimento de Apensa\u00e7\u00e3o n. 4934/2016, pelo Deputado Alexandre Leite (DEM-SP), que: \"Requer a apensa\u00e7\u00e3o dos Projetos de Lei n\u00ba 4.060/2012 e 5.276/2016, por se tratarem de mat\u00e9rias correlatas\". Inteiro teor"
    }
},
{
    "model": "main.tramitacao",
    "pk": 14,
    "fields": {
        "id_site": "('aa3dbbd4f664651052e658ea2caf7f02',)",
        "data": "2016-07-12",
        "projeto": 8,
        "local": "Comiss\u00e3o de Trabalho, de Administra\u00e7\u00e3o e Servi\u00e7o P\u00fablico ( CTASP )",
        "descricao": "Devolu\u00e7\u00e3o \u00e0 CCP, em raz\u00e3o do Memo, 189/16 - COPER."
    }
},
{
    "model": "main.tramitacao",
    "pk": 15,
    "fields": {
        "id_site": "('f6e1b483975f585c354c6437a5a453a1',)",
        "data": "2016-07-07",
        "projeto": 8,
        "local": "Comiss\u00e3o de Trabalho, de Administra\u00e7\u00e3o e Servi\u00e7o P\u00fablico ( CTASP )",
        "descricao": "Realizada Audi\u00eancia P\u00fablica com a participa\u00e7\u00e3o da Comiss\u00e3o de Ci\u00eancia e Tecnologia, Comunica\u00e7\u00e3o e Inform\u00e1tica em cumprimento aos Requerimentos n\u00bas 127/16, de autoria do Deputado Orlando Silva, 134/16, de autoria do Deputado Nelson Marchezan J\u00fanior da CTASP e Requerimento n\u00ba 160/16, de autoria do Deputado Sandro Alex da CCTCI. Audi\u00eancia P\u00fablica realizada em cumprimento aos Requerimentos n\u00bas: 127/16 e 134/16."
    }
},
{
    "model": "main.tramitacao",
    "pk": 16,
    "fields": {
        "id_site": "('c65a43c12f2dbd4b6983ff93e41bc23b',)",
        "data": "2016-07-06",
        "projeto": 8,
        "local": "COORDENA\u00c7\u00c3O DE COMISS\u00d5ES PERMANENTES ( CCP )",
        "descricao": "\u00c0 CCTCI c\u00f3pia do despacho aposto a este em virtude da MSC 372/16 \u00c0 CTASP e \u00c0 CCJC os Memorandos n\u00bas 189 e 190/16 - COPER solicitando a devolu\u00e7\u00e3o deste. Inteiro teor"
    }
},
{
    "model": "main.tramitacao",
    "pk": 17,
    "fields": {
        "id_site": "('9298a9f39ff961394bdc13703f51423d',)",
        "data": "2016-07-06",
        "projeto": 8,
        "local": "PLEN\u00c1RIO ( PLEN ) - 14:00 Sess\u00e3o Deliberativa Ordin\u00e1ria",
        "descricao": "Mat\u00e9ria n\u00e3o apreciada em face do encerramento da Sess\u00e3o."
    }
},
{
    "model": "main.tramitacao",
    "pk": 18,
    "fields": {
        "id_site": "('313c23971d48c6c3c9af72bb273c48fd',)",
        "data": "2016-07-06",
        "projeto": 8,
        "local": "Mesa Diretora da C\u00e2mara dos Deputados ( MESA )",
        "descricao": "Em raz\u00e3o da apresenta\u00e7\u00e3o da MSC n\u00ba 372/2016, que solicitou o cancelamento do pedido de urg\u00eancia para a aprecia\u00e7\u00e3o do Projeto de Lei n\u00ba 5.276, de 2016, a mat\u00e9ria passa a tramitar em regime de Prioridade, na forma do art. 151, II, \"a\", do RICD. \u00c0s Comiss\u00f5es de Ci\u00eancia e Tecnologia, Comunica\u00e7\u00e3o e Inform\u00e1tica; Trabalho, de Administra\u00e7\u00e3o e Servi\u00e7o P\u00fablico, e deConstitui\u00e7\u00e3o e Justi\u00e7a e de Cidadania (M\u00e9rito e Art. 54, RICD) Proposi\u00e7\u00e3o Sujeita \u00e0 Aprecia\u00e7\u00e3o do Plen\u00e1rio. Regime de Tramita\u00e7\u00e3o: Prioridade Inteiro teor"
    }
},
{
    "model": "main.tramitacao",
    "pk": 19,
    "fields": {
        "id_site": "('eab6dc0df4485dc4950f25dfda91c374',)",
        "data": "2016-07-05",
        "projeto": 8,
        "local": "PLEN\u00c1RIO ( PLEN ) - 19:53 Sess\u00e3o Deliberativa Extraordin\u00e1ria",
        "descricao": "Mat\u00e9ria n\u00e3o apreciada em face do encerramento da Sess\u00e3o."
    }
},
{
    "model": "main.tramitacao",
    "pk": 20,
    "fields": {
        "id_site": "('99c8325d9281cf5bbd14bd13e6d50ecb',)",
        "data": "2016-07-05",
        "projeto": 8,
        "local": "PLEN\u00c1RIO ( PLEN ) - 14:00 Sess\u00e3o Deliberativa Ordin\u00e1ria",
        "descricao": "Mat\u00e9ria n\u00e3o apreciada em face do encerramento da Sess\u00e3o."
    }
},
{
    "model": "main.tramitacao",
    "pk": 21,
    "fields": {
        "id_site": "('6b5194e2751ec4b50746de52269e9477',)",
        "data": "2016-06-28",
        "projeto": 8,
        "local": "PLEN\u00c1RIO ( PLEN ) - 10:00 Sess\u00e3o Deliberativa Extraordin\u00e1ria",
        "descricao": "Mat\u00e9ria n\u00e3o apreciada em face do encerramento da Sess\u00e3o."
    }
},
{
    "model": "main.tramitacao",
    "pk": 22,
    "fields": {
        "id_site": "('f09dfc52e4302728887dfdb525a0e119',)",
        "data": "2016-06-24",
        "projeto": 8,
        "local": "Mesa Diretora da C\u00e2mara dos Deputados ( MESA )",
        "descricao": "Indeferido o Requerimento n. 4.722/2016, conforme despacho do seghuinte teor: \"Com fundamento no art. 104, \u00a7 2\u00ba, combinado com o art. 120, \u00a7 4\u00ba, do Regimento Interno da C\u00e2mara dos Deputados - RICD, indefiro a retirada da Emenda de Plen\u00e1rio n. 6/2016, apresentada ao Projeto de Lei n. 5.276/2016, que tramita em regime de urg\u00eancia constitucional, pois o Requerimento n. 4.722/2016 n\u00e3o se encontra assinado por metade mais um dos subscritores da proposi\u00e7\u00e3o acess\u00f3ria. Publique-se. Oficie-se.\". Indeferido o Requerimento n. 4.684/2016, conforme despacho do seguinte teor: \"Indefiro o Requerimento n. 4.684/2016, porque a mat\u00e9ria versada no Projeto de Lei n. 5.276/2016 n\u00e3o se enquadra no campo tem\u00e1tico da Comiss\u00e3o de Desenvolvimento Econ\u00f4mico, Ind\u00fastria, Com\u00e9rcio e Servi\u00e7os, delimitado no inciso VI do art. 32 do Regimento Interno da C\u00e2mara dos Deputados - RICD. Publique-se. Oficie-se.\"."
    }
},
{
    "model": "main.tramitacao",
    "pk": 23,
    "fields": {
        "id_site": "('13daeeb5ab4f2fcd4f41ea548340e90f',)",
        "data": "2016-06-22",
        "projeto": 8,
        "local": "COORDENA\u00c7\u00c3O DE COMISS\u00d5ES PERMANENTES ( CCP )",
        "descricao": "Encaminhado \u00e0 publica\u00e7\u00e3o - letra A, Emendas de Plen\u00e1rio."
    }
},
{
    "model": "main.tramitacao",
    "pk": 24,
    "fields": {
        "id_site": "('ec97443eb3a9a68dbf6c27f68fefef44',)",
        "data": "2016-06-21",
        "projeto": 8,
        "local": "Comiss\u00e3o de Ci\u00eancia e Tecnologia, Comunica\u00e7\u00e3o e Inform\u00e1tica ( CCTCI )",
        "descricao": "Aprovado requerimento do Sr. Sandro Alex que requer a realiza\u00e7\u00e3o de audi\u00eancia p\u00fablica para debater o Projeto de Lei n\u00ba 5.276, de 2016, que \"disp\u00f5e sobre o tratamento de dados pessoais para a garantia do livre desenvolvimento da personalidade e da dignidade da pessoa natural\"."
    }
},
{
    "model": "main.tramitacao",
    "pk": 25,
    "fields": {
        "id_site": "('606d4490f2af23d9eabf60bfb6d0b667',)",
        "data": "2016-06-16",
        "projeto": 8,
        "local": "PLEN\u00c1RIO ( PLEN )",
        "descricao": "Apresenta\u00e7\u00e3o do Requerimento de Retirada de Proposi\u00e7\u00e3o de Iniciativa Coletiva n. 4722/2016, pelo Deputado Sandro Alex (PSD-PR), que: \"Requer a retirada de tramita\u00e7\u00e3o da Emenda n\u00ba 6, de 2016, apresentada ao Projeto de Lei n\u00ba 5.276, de 2016.\". Inteiro teor"
    }
},
{
    "model": "main.tramitacao",
    "pk": 26,
    "fields": {
        "id_site": "('dc2b49c5fccf107c2529efbaccb8d440',)",
        "data": "2016-06-15",
        "projeto": 8,
        "local": "Comiss\u00e3o de Trabalho, de Administra\u00e7\u00e3o e Servi\u00e7o P\u00fablico ( CTASP )",
        "descricao": "Aprova\u00e7\u00e3o do Requerimento n\u00ba 134/16, de autoria do Deputado Nelson Marchezan Junior, que requer audi\u00eancia p\u00fablica para debater o Projeto de Lei, por acordo, em forma de semin\u00e1rio."
    }
},
{
    "model": "main.tramitacao",
    "pk": 27,
    "fields": {
        "id_site": "('1512d4fb612403c6147523afd130db1b',)",
        "data": "2016-06-15",
        "projeto": 8,
        "local": "Comiss\u00e3o de Ci\u00eancia e Tecnologia, Comunica\u00e7\u00e3o e Inform\u00e1tica ( CCTCI )",
        "descricao": "Designado Relator, Dep. Sandro Alex (PSD-PR)"
    }
},
{
    "model": "main.tramitacao",
    "pk": 28,
    "fields": {
        "id_site": "('cd7b2695b66bf3db1450637b8c257415',)",
        "data": "2016-06-15",
        "projeto": 8,
        "local": "PLEN\u00c1RIO ( PLEN )",
        "descricao": "Apresenta\u00e7\u00e3o do Requerimento de Redistribui\u00e7\u00e3o n. 4684/2016, pelo Deputado Laercio Oliveira (SD-SE), que: \"Requer a revis\u00e3o de despacho de distribui\u00e7\u00e3o do PL n\u00ba 5.276/2016, para incluir a Comiss\u00e3o de Desenvolvimento Econ\u00f4mico, Ind\u00fastria, Com\u00e9rcio e Servi\u00e7os no rol de comiss\u00f5es competentes para apreciar o m\u00e9rito da mat\u00e9ria\". Inteiro teor"
    }
},
{
    "model": "main.tramitacao",
    "pk": 29,
    "fields": {
        "id_site": "('5df453d691ea92feeb7e73f77996c837',)",
        "data": "2016-06-14",
        "projeto": 8,
        "local": "Comiss\u00e3o de Ci\u00eancia e Tecnologia, Comunica\u00e7\u00e3o e Inform\u00e1tica ( CCTCI )",
        "descricao": "Recebimento pela CCTCI. Apresenta\u00e7\u00e3o do Requerimento n. 160/2016, pelo Deputado Sandro Alex (PSD-PR), que: \"Requer a realiza\u00e7\u00e3o de audi\u00eancia p\u00fablica para debater o Projeto de Lei n\u00ba 5.276, de 2016, que 'disp\u00f5e sobre o tratamento de dados pessoais para a garantia do livre desenvolvimento da personalidade e da dignidade da pessoa natural'.\". Inteiro teor"
    }
},
{
    "model": "main.tramitacao",
    "pk": 30,
    "fields": {
        "id_site": "('1410feff22ac14d3f6a65d70c1143909',)",
        "data": "2016-06-10",
        "projeto": 8,
        "local": "Comiss\u00e3o de Trabalho, de Administra\u00e7\u00e3o e Servi\u00e7o P\u00fablico ( CTASP )",
        "descricao": "Apresenta\u00e7\u00e3o do Requerimento de Audi\u00eancia P\u00fablica n. 134/2016, pelos Deputados Nelson Marchezan Junior (PSDB-RS) e outros, que: \"Requer a realiza\u00e7\u00e3o de audi\u00eancia p\u00fablica para debater o Projeto de Lei n\u00ba 5.276/2016, que 'Disp\u00f5e sobre o tratamento de dados pessoais para a garantia do livre desenvolvimento da personalidade e da dignidade da pessoa natural.'\". Inteiro teor"
    }
},
{
    "model": "main.tramitacao",
    "pk": 31,
    "fields": {
        "id_site": "('2ebac58a8c1d7c0fdc2993b583a47b2d',)",
        "data": "2016-06-10",
        "projeto": 8,
        "local": "Mesa Diretora da C\u00e2mara dos Deputados ( MESA )",
        "descricao": "Deferido o Requerimento n. 4.541/2016, conforme despacho do seguinte teor: Defiro o Requerimento n. 4.541/2016, nos termos dos arts. 32, III, e 141 do Regimento Interno da C\u00e2mara dos Deputados \u2013 RICD. Revejo o despacho inicial aposto ao Projeto de Lei n. 5.276/2016, para incluir o exame pela Comiss\u00e3o de Ci\u00eancia e Tecnologia, Comunica\u00e7\u00e3o e Inform\u00e1tica. Esclare\u00e7o que, para os fins do art. 191, III, do RICD, prevalecer\u00e1 a ordem de distribui\u00e7\u00e3o prevista neste despacho. Publique-se. Oficie-se.[ATUALIZA\u00c7\u00c3O DO DESPACHO DO PL N. 5.276/2016: \u00c0 CCTCI, \u00e0 CTASP e \u00e0 CCJC (m\u00e9rito e art. 54 do RICD). Proposi\u00e7\u00e3o sujeita \u00e0 delibera\u00e7\u00e3o do Plen\u00e1rio. Regime de tramita\u00e7\u00e3o: Urg\u00eancia (art. 64 da CF/88).] Inteiro teor"
    }
},
{
    "model": "main.tramitacao",
    "pk": 32,
    "fields": {
        "id_site": "('15768b8e6a538cf77c0af96baa4a2796',)",
        "data": "2016-06-01",
        "projeto": 8,
        "local": "Comiss\u00e3o de Trabalho, de Administra\u00e7\u00e3o e Servi\u00e7o P\u00fablico ( CTASP )",
        "descricao": "Aprovado requerimento de realiza\u00e7\u00e3o de Audi\u00eancia P\u00fablica de autoria do Deputado Orlando Silva."
    }
},
{
    "model": "main.tramitacao",
    "pk": 33,
    "fields": {
        "id_site": "('773d8836c3abc1f52b37e49b69ab880f',)",
        "data": "2016-05-31",
        "projeto": 8,
        "local": "Comiss\u00e3o de Trabalho, de Administra\u00e7\u00e3o e Servi\u00e7o P\u00fablico ( CTASP )",
        "descricao": "Apresenta\u00e7\u00e3o do Requerimento de Audi\u00eancia P\u00fablica n. 127/2016, pelo Deputado Orlando Silva (PCdoB-SP), que: \"Requer a realiza\u00e7\u00e3o de audi\u00eancia p\u00fablica para debater o PL n\u00ba 5276/2016 que disp\u00f5e sobre o tratamento de dados pessoais para a garantia do livre desenvolvimento da personalidade e da dignidade da pessoa natural.\". Inteiro teor"
    }
},
{
    "model": "main.tramitacao",
    "pk": 34,
    "fields": {
        "id_site": "('2a67b1edb9a2327444467161dd2c36af',)",
        "data": "2016-05-31",
        "projeto": 8,
        "local": "PLEN\u00c1RIO ( PLEN )",
        "descricao": "Apresenta\u00e7\u00e3o do Requerimento de Redistribui\u00e7\u00e3o n. 4541/2016, pelo Deputado Alexandre Leite (DEM-SP), que: \"Solicita redistribui\u00e7\u00e3o \u00e0 Comiss\u00e3o de Ci\u00eancia e Tecnologia, Comunica\u00e7\u00e3o e Inform\u00e1tica - CCTCI do Projeto de Lei n\u00ba 5.276/2016.\". Inteiro teor"
    }
},
{
    "model": "main.tramitacao",
    "pk": 35,
    "fields": {
        "id_site": "('6cc3f73b514c40ea8bd3e6581194d0c2',)",
        "data": "2016-05-30",
        "projeto": 8,
        "local": "COORDENA\u00c7\u00c3O DE COMISS\u00d5ES PERMANENTES ( CCP )",
        "descricao": "\u00c0S CCJC e CTASP as emendas apresentadas em Plen\u00e1rio a este."
    }
},
{
    "model": "main.tramitacao",
    "pk": 36,
    "fields": {
        "id_site": "('9a495ee165d45077c034c3c63433efe4',)",
        "data": "2016-05-25",
        "projeto": 8,
        "local": "Mesa Diretora da C\u00e2mara dos Deputados ( MESA )",
        "descricao": "Encerrado o prazo de emendamento de Plen\u00e1rio, foram apresentadas 11 (onze) emendas \u00e0 mat\u00e9ria."
    }
},
{
    "model": "main.tramitacao",
    "pk": 37,
    "fields": {
        "id_site": "('4c0aecc7e49d5ad590146e72e905898d',)",
        "data": "2016-05-25",
        "projeto": 8,
        "local": "PLEN\u00c1RIO ( PLEN )",
        "descricao": "Encerramento autom\u00e1tico do Prazo de emendamento em plen\u00e1rio"
    }
},
{
    "model": "main.tramitacao",
    "pk": 38,
    "fields": {
        "id_site": "('fd26f215f48a058840bac32ec747fb07',)",
        "data": "2016-05-20",
        "projeto": 8,
        "local": "Comiss\u00e3o de Trabalho, de Administra\u00e7\u00e3o e Servi\u00e7o P\u00fablico ( CTASP )",
        "descricao": "Designado Relator, Dep. Orlando Silva (PCdoB-SP)"
    }
},
{
    "model": "main.tramitacao",
    "pk": 39,
    "fields": {
        "id_site": "('d6be763e0ee2bc02bf11ed12ca0982e9',)",
        "data": "2016-05-19",
        "projeto": 8,
        "local": "Comiss\u00e3o de Constitui\u00e7\u00e3o e Justi\u00e7a e de Cidadania ( CCJC )",
        "descricao": "Designado Relator, Dep. Alessandro Molon (REDE-RJ)"
    }
},
{
    "model": "main.tramitacao",
    "pk": 40,
    "fields": {
        "id_site": "('9bec49839b50b754502c896a81f2648b',)",
        "data": "2016-05-16",
        "projeto": 8,
        "local": "Comiss\u00e3o de Constitui\u00e7\u00e3o e Justi\u00e7a e de Cidadania ( CCJC )",
        "descricao": "Recebimento pela CCJC."
    }
},
{
    "model": "main.tramitacao",
    "pk": 41,
    "fields": {
        "id_site": "('137fb1dce7b9b72b7a003a61c7ad35a1',)",
        "data": "2016-05-16",
        "projeto": 8,
        "local": "Comiss\u00e3o de Trabalho, de Administra\u00e7\u00e3o e Servi\u00e7o P\u00fablico ( CTASP )",
        "descricao": "Recebimento pela CTASP."
    }
},
{
    "model": "main.tramitacao",
    "pk": 42,
    "fields": {
        "id_site": "('bb26aa27ffa6c30e2ac91c4e1941a404',)",
        "data": "2016-05-13",
        "projeto": 8,
        "local": "PLEN\u00c1RIO ( PLEN )",
        "descricao": "Prazo para apresenta\u00e7\u00e3o de emendas em Plen\u00e1rio: 5 sess\u00f5es a partir de 16/05/2016, em raz\u00e3o da Urg\u00eancia Constitucional a este apresentada."
    }
},
{
    "model": "main.tramitacao",
    "pk": 43,
    "fields": {
        "id_site": "('28d83ace12428010319a5cb1ce77a065',)",
        "data": "2016-05-13",
        "projeto": 8,
        "local": "COORDENA\u00c7\u00c3O DE COMISS\u00d5ES PERMANENTES ( CCP )",
        "descricao": "Encaminhada \u00e0 publica\u00e7\u00e3o. Publica\u00e7\u00e3o Inicial em avulso e no DCD de 14/05/16 P\u00c1G 42 COL 01. Inteiro teor"
    }
},
{
    "model": "main.tramitacao",
    "pk": 44,
    "fields": {
        "id_site": "('3bf8ffaf723c7a3ed181ce125773a568',)",
        "data": "2016-05-13",
        "projeto": 8,
        "local": "Mesa Diretora da C\u00e2mara dos Deputados ( MESA )",
        "descricao": "Prazo de 45 dias para aprecia\u00e7\u00e3o na C\u00e2mara dos Deputados (Art. 64 \u00a72 da CF): de 14/05/2016 a 27/06/2016. Sobresta a pauta a partir de: 28/06/2016 \u00c0s Comiss\u00f5es de Trabalho, de Administra\u00e7\u00e3o e Servi\u00e7o P\u00fablico e Constitui\u00e7\u00e3o e Justi\u00e7a e de Cidadania (M\u00e9rito e Art. 54, RICD)Proposi\u00e7\u00e3o Sujeita \u00e0 Aprecia\u00e7\u00e3o do Plen\u00e1rio. Regime de Tramita\u00e7\u00e3o: Urg\u00eancia art. 64 CF Inteiro teor"
    }
},
{
    "model": "main.tramitacao",
    "pk": 45,
    "fields": {
        "id_site": "('74ae25852913bd1c800926498259a88c',)",
        "data": "2016-05-13",
        "projeto": 8,
        "local": "PLEN\u00c1RIO ( PLEN )",
        "descricao": "Apresenta\u00e7\u00e3o do Projeto de Lei n. 5276/2016, pelo Poder Executivo, que: \"Disp\u00f5e sobre o tratamento de dados pessoais para a garantia do livre desenvolvimento da personalidade e da dignidade da pessoa natural\". Inteiro teor Apresenta\u00e7\u00e3o da Mensagem de Solicita\u00e7\u00e3o de urg\u00eancia n. 255/2016, pelo Poder Executivo, que: \"Submete \u00e0 delibera\u00e7\u00e3o do Congresso Nacional o texto do Projeto de Lei que ' Disp\u00f5e sobre o tratamento de dados pessoais para a garantia do livre desenvolvimento da personalidade e da dignidade da pessoa natural\". Inteiro teor"
    }
},
{
    "model": "main.tramitacao",
    "pk": 46,
    "fields": {
        "id_site": "('0c9efd51dad847a27ee25e57358b97aa',)",
        "data": "2017-04-20",
        "projeto": 9,
        "local": "Comiss\u00e3o de Constitui\u00e7\u00e3o e Justi\u00e7a e de Cidadania ( CCJC )",
        "descricao": "Designado Relator, Dep. Covatti Filho (PP-RS)"
    }
},
{
    "model": "main.tramitacao",
    "pk": 47,
    "fields": {
        "id_site": "('271997c24c8f40e9e0d499f3be18b40f',)",
        "data": "2017-03-24",
        "projeto": 9,
        "local": "Comiss\u00e3o de Constitui\u00e7\u00e3o e Justi\u00e7a e de Cidadania ( CCJC )",
        "descricao": "Devolvida pelo Relator n\u00e3o-membro."
    }
},
{
    "model": "main.tramitacao",
    "pk": 48,
    "fields": {
        "id_site": "('6a37395c3fefbc19b3fa3bd5501cd32d',)",
        "data": "2016-05-30",
        "projeto": 9,
        "local": "Comiss\u00e3o de Constitui\u00e7\u00e3o e Justi\u00e7a e de Cidadania ( CCJC )",
        "descricao": "Designado Relator, Dep. Elmar Nascimento (DEM-BA)"
    }
},
{
    "model": "main.tramitacao",
    "pk": 49,
    "fields": {
        "id_site": "('bfa862512bb3c8cafc1a88042fd55730',)",
        "data": "2016-04-26",
        "projeto": 9,
        "local": "Comiss\u00e3o de Constitui\u00e7\u00e3o e Justi\u00e7a e de Cidadania ( CCJC )",
        "descricao": "Devolvida sem Manifesta\u00e7\u00e3o."
    }
},
{
    "model": "main.tramitacao",
    "pk": 50,
    "fields": {
        "id_site": "('95bef08359e8e7705b9535ea1e056122',)",
        "data": "2015-10-08",
        "projeto": 9,
        "local": "Comiss\u00e3o de Constitui\u00e7\u00e3o e Justi\u00e7a e de Cidadania ( CCJC )",
        "descricao": "Designado Relator, Dep. Bacelar (PTN-BA)"
    }
},
{
    "model": "main.tramitacao",
    "pk": 51,
    "fields": {
        "id_site": "('1baba511bb5ca1328549d3a6ff79aa68',)",
        "data": "2011-03-30",
        "projeto": 9,
        "local": "Comiss\u00e3o de Constitui\u00e7\u00e3o e Justi\u00e7a e de Cidadania ( CCJC )",
        "descricao": "Devolvida sem Manifesta\u00e7\u00e3o."
    }
},
{
    "model": "main.tramitacao",
    "pk": 52,
    "fields": {
        "id_site": "('470006762636f18c4c42ac63d98dbba8',)",
        "data": "2007-05-29",
        "projeto": 9,
        "local": "Comiss\u00e3o de Constitui\u00e7\u00e3o e Justi\u00e7a e de Cidadania ( CCJC )",
        "descricao": "Encerrado o prazo para emendas ao projeto. Foi apresentada uma emenda."
    }
},
{
    "model": "main.tramitacao",
    "pk": 53,
    "fields": {
        "id_site": "('790c457547c4973e5da389f5eecd6f97',)",
        "data": "2007-05-11",
        "projeto": 9,
        "local": "Comiss\u00e3o de Constitui\u00e7\u00e3o e Justi\u00e7a e de Cidadania ( CCJC )",
        "descricao": "Prazo para Emendas ao Projeto (5 sess\u00f5es ordin\u00e1rias a partir de 14/05/2007)"
    }
},
{
    "model": "main.tramitacao",
    "pk": 54,
    "fields": {
        "id_site": "('d4502c1fbc1e47a8372ea63328c7eeb1',)",
        "data": "2007-05-10",
        "projeto": 9,
        "local": "Comiss\u00e3o de Constitui\u00e7\u00e3o e Justi\u00e7a e de Cidadania ( CCJC )",
        "descricao": "Designado Relator, Dep. Jo\u00e3o Paulo Cunha (PT-SP)"
    }
},
{
    "model": "main.tramitacao",
    "pk": 55,
    "fields": {
        "id_site": "('11e164d3a9fbbf7be9eb306806063865',)",
        "data": "2006-11-27",
        "projeto": 9,
        "local": "Comiss\u00e3o de Constitui\u00e7\u00e3o e Justi\u00e7a e de Cidadania ( CCJC )",
        "descricao": "Parecer do Relator, Dep. Luiz Eduardo Greenhalgh (PT-SP), pela constitucionalidade, juridicidade, t\u00e9cnica legislativa e, no m\u00e9rito, pela aprova\u00e7\u00e3o deste, com emendas e das Emendas da Comiss\u00e3o de Defesa do Consumidor; pela inconstitucionalidade, injuridicidade, m\u00e1 t\u00e9cnica legislativa e, no m\u00e9rito, pela rejei\u00e7\u00e3o do PL 6981/2002, apensado; e pela constitucionalidade, juridicidade, t\u00e9cnica legislativa e, no m\u00e9rito, pela rejei\u00e7\u00e3o das Emendas apresentadas nesta Comiss\u00e3o. Inteiro teor"
    }
},
{
    "model": "main.tramitacao",
    "pk": 56,
    "fields": {
        "id_site": "('dde9a1a85a37e846f2678bfafe2f521e',)",
        "data": "2006-11-22",
        "projeto": 9,
        "local": "Comiss\u00e3o de Constitui\u00e7\u00e3o e Justi\u00e7a e de Cidadania ( CCJC )",
        "descricao": "Parecer do Relator, Dep. Luiz Eduardo Greenhalgh (PT-SP), pela constitucionalidade, juridicidade, t\u00e9cnica legislativa e, no m\u00e9rito, pela aprova\u00e7\u00e3o deste e das Emendas 1 e 2 da Comiss\u00e3o de Defesa do Consumidor, com emendas; pela inconstitucionalidade, injuridicidade, m\u00e1 t\u00e9cnica legislativa e, no m\u00e9rito, pela rejei\u00e7\u00e3o do PL 6981/2002, apensado; pela constitucionalidade, juridicidade, t\u00e9cnica legislativa e, no m\u00e9rito, pela rejei\u00e7\u00e3o das Emendas 1/2003 e 2/2003 da Comiss\u00e3o de Constitui\u00e7\u00e3o e Justi\u00e7a e de Cidadania. Inteiro teor Devolvido ao Relator, Dep. Luiz Eduardo Greenhalgh (PT-SP)"
    }
},
{
    "model": "main.tramitacao",
    "pk": 57,
    "fields": {
        "id_site": "('6885f92e6f3f1f81f958b1ad61c65c43',)",
        "data": "2003-08-01",
        "projeto": 9,
        "local": "Comiss\u00e3o de Constitui\u00e7\u00e3o e Justi\u00e7a e de Cidadania ( CCJC )",
        "descricao": "Designado Relator, Dep. Luiz Eduardo Greenhalgh"
    }
},
{
    "model": "main.tramitacao",
    "pk": 58,
    "fields": {
        "id_site": "('5692bd56c884720fc7542b3b2fa9083a',)",
        "data": "2003-06-26",
        "projeto": 9,
        "local": "Comiss\u00e3o de Constitui\u00e7\u00e3o e Justi\u00e7a e de Cidadania ( CCJC )",
        "descricao": "Devolvida sem Manifesta\u00e7\u00e3o."
    }
},
{
    "model": "main.tramitacao",
    "pk": 59,
    "fields": {
        "id_site": "('470a23915394ba2a819335355f96b8af',)",
        "data": "2003-03-31",
        "projeto": 9,
        "local": "Comiss\u00e3o de Constitui\u00e7\u00e3o e Justi\u00e7a e de Cidadania ( CCJC )",
        "descricao": "Encerrado o prazo para emendas. Foram apresentadas 2 emendas."
    }
},
{
    "model": "main.tramitacao",
    "pk": 60,
    "fields": {
        "id_site": "('aa434c8a390050e61e54203fcc5f4276',)",
        "data": "2003-03-21",
        "projeto": 9,
        "local": "Comiss\u00e3o de Constitui\u00e7\u00e3o e Justi\u00e7a e de Cidadania ( CCJC )",
        "descricao": "Abertura de Prazo para Emendas ao Projeto"
    }
},
{
    "model": "main.tramitacao",
    "pk": 61,
    "fields": {
        "id_site": "('d2041d54270823f7bed46d4aec66d99c',)",
        "data": "2003-03-20",
        "projeto": 9,
        "local": "Comiss\u00e3o de Constitui\u00e7\u00e3o e Justi\u00e7a e de Cidadania ( CCJC )",
        "descricao": "Designado Relator, Dep. Dimas Ramalho"
    }
},
{
    "model": "main.tramitacao",
    "pk": 62,
    "fields": {
        "id_site": "('159371cb156fac11f90955aaed6f2395',)",
        "data": "2003-02-19",
        "projeto": 9,
        "local": "COORDENA\u00c7\u00c3O DE COMISS\u00d5ES PERMANENTES ( CCP )",
        "descricao": "Encaminhada \u00e0 publica\u00e7\u00e3o. Parecer da Comiss\u00e3o de Defesa do Consumidor, Meio Ambiente e Minorias publicado no DCD de 20/02/03 P\u00c1G 03339 COL 02, Letra A. Inteiro teor"
    }
},
{
    "model": "main.tramitacao",
    "pk": 63,
    "fields": {
        "id_site": "('bf390cbc76b8962df63cbba2ce91342c',)",
        "data": "2002-12-17",
        "projeto": 9,
        "local": "Comiss\u00e3o de Constitui\u00e7\u00e3o e Justi\u00e7a e de Cidadania ( CCJC )",
        "descricao": "Recebimento pela CCJR, com a proposi\u00e7\u00e3o PL-6981/2002 apensada."
    }
},
{
    "model": "main.tramitacao",
    "pk": 64,
    "fields": {
        "id_site": "('b3b248e62f0985523925205508f0aa8f',)",
        "data": "2002-12-11",
        "projeto": 9,
        "local": "Comiss\u00e3o de Defesa do Consumidor ( CDC ) - 10:00 Reuni\u00e3o Deliberativa Ordin\u00e1ria",
        "descricao": "Aprovado por Unanimidade o Parecer"
    }
},
{
    "model": "main.tramitacao",
    "pk": 65,
    "fields": {
        "id_site": "('5a9ee0efd6c1156e0cf148f1599183a0',)",
        "data": "2002-12-09",
        "projeto": 9,
        "local": "Comiss\u00e3o de Defesa do Consumidor ( CDC )",
        "descricao": "Encerramento autom\u00e1tico do Prazo para Vista Individual."
    }
},
{
    "model": "main.tramitacao",
    "pk": 66,
    "fields": {
        "id_site": "('066997a657b1ae744d4a9a70c3821a8a',)",
        "data": "2002-12-04",
        "projeto": 9,
        "local": "Comiss\u00e3o de Defesa do Consumidor ( CDC ) - 10:00 Reuni\u00e3o Deliberativa Ordin\u00e1ria",
        "descricao": "Vista ao Deputado Luciano Zica."
    }
},
{
    "model": "main.tramitacao",
    "pk": 67,
    "fields": {
        "id_site": "('0f68b3e535ec0c0440f1dd629b6d096a',)",
        "data": "2002-12-03",
        "projeto": 9,
        "local": "Comiss\u00e3o de Defesa do Consumidor ( CDC )",
        "descricao": "Devolvido ao Relator, Dep. Jos\u00e9 Borba Parecer do Relator, Dep. Jos\u00e9 Borba, pela aprova\u00e7\u00e3o deste e da emenda apresentada na Comiss\u00e3o, com emendas, e pela rejei\u00e7\u00e3o do PL 6981/2002, apensado. Inteiro teor"
    }
},
{
    "model": "main.tramitacao",
    "pk": 68,
    "fields": {
        "id_site": "('5a5027f56268e7dff5a1536b83fbe98c',)",
        "data": "2002-11-29",
        "projeto": 9,
        "local": "Comiss\u00e3o de Defesa do Consumidor ( CDC )",
        "descricao": "Parecer do Relator, Dep. Jos\u00e9 Borba, pela aprova\u00e7\u00e3o deste, com emendas, e pela rejei\u00e7\u00e3o do PL 6981/2002, apensado. Inteiro teor"
    }
},
{
    "model": "main.tramitacao",
    "pk": 69,
    "fields": {
        "id_site": "('800480854909b115ba648aec247f137a',)",
        "data": "2002-11-08",
        "projeto": 9,
        "local": "Comiss\u00e3o de Defesa do Consumidor ( CDC )",
        "descricao": "Designado Relator, Dep. Jos\u00e9 Borba"
    }
},
{
    "model": "main.tramitacao",
    "pk": 70,
    "fields": {
        "id_site": "('f50a87c1ddcccfcca0a912e9ee5f1464',)",
        "data": "2002-11-07",
        "projeto": 9,
        "local": "Comiss\u00e3o de Defesa do Consumidor ( CDC )",
        "descricao": "Devolvida sem Manifesta\u00e7\u00e3o."
    }
},
{
    "model": "main.tramitacao",
    "pk": 71,
    "fields": {
        "id_site": "('d6d592d720e78e509c6650d602efb575',)",
        "data": "2002-07-05",
        "projeto": 9,
        "local": "Mesa Diretora da C\u00e2mara dos Deputados ( MESA )",
        "descricao": "Apense-se a este o PL-6981/2002."
    }
},
{
    "model": "main.tramitacao",
    "pk": 72,
    "fields": {
        "id_site": "('c0a39f0ce83b32b28bd3e4e59901a969',)",
        "data": "2001-11-09",
        "projeto": 9,
        "local": "Comiss\u00e3o de Defesa do Consumidor ( CDC )",
        "descricao": "Designado Relator, Dep. Luciano Pizzatto"
    }
},
{
    "model": "main.tramitacao",
    "pk": 73,
    "fields": {
        "id_site": "('b1f59766924b62e699c0ed1b771ea824',)",
        "data": "2001-03-22",
        "projeto": 9,
        "local": "Comiss\u00e3o de Defesa do Consumidor ( CDC )",
        "descricao": "Devolu\u00e7\u00e3o por for\u00e7a da sa\u00edda do relator da comiss\u00e3o."
    }
},
{
    "model": "main.tramitacao",
    "pk": 74,
    "fields": {
        "id_site": "('1bc09ac6df6d91b8c1066d35d0f28465',)",
        "data": "2000-11-01",
        "projeto": 9,
        "local": "Mesa Diretora da C\u00e2mara dos Deputados ( MESA )",
        "descricao": "INDEFERIDO REQUERIMENTO DO DEP PEDRO FERNANDES, SOLICITANDO A APENSA\u00c7\u00c3O DO PL. 3360/00 A ESTE."
    }
},
{
    "model": "main.tramitacao",
    "pk": 75,
    "fields": {
        "id_site": "('6ad53260fa648c61e49728c58cfb69a6',)",
        "data": "2000-10-09",
        "projeto": 9,
        "local": "Comiss\u00e3o de Defesa do Consumidor ( CDC )",
        "descricao": "APRESENTA\u00c7\u00c3O DE EMENDA PELO DEP LEO ALCANTARA."
    }
},
{
    "model": "main.tramitacao",
    "pk": 76,
    "fields": {
        "id_site": "('008f9ea35edbd821a9abfcb46c22c859',)",
        "data": "2000-10-08",
        "projeto": 9,
        "local": "Comiss\u00e3o de Defesa do Consumidor ( CDC )",
        "descricao": "PRAZO PARA APRESENTA\u00c7\u00c3O DE EMENDAS: 05 SESS\u00d5ES."
    }
},
{
    "model": "main.tramitacao",
    "pk": 77,
    "fields": {
        "id_site": "('ea4c51d6370d177f3d40571f6319769b',)",
        "data": "2000-10-04",
        "projeto": 9,
        "local": "Mesa Diretora da C\u00e2mara dos Deputados ( MESA )",
        "descricao": "REQUERIMENTO DO DEP PEDRO FERNANDES, SOLICITANDO A APENSA\u00c7\u00c3O DO PL 3360/00 \u00c0 ESTE."
    }
},
{
    "model": "main.tramitacao",
    "pk": 78,
    "fields": {
        "id_site": "('6adbcd3989086b95a3d0a2a035acc810',)",
        "data": "2000-09-26",
        "projeto": 9,
        "local": "Comiss\u00e3o de Defesa do Consumidor ( CDC )",
        "descricao": "RELATOR DEP ARLINDO CHINAGLIA."
    }
},
{
    "model": "main.tramitacao",
    "pk": 79,
    "fields": {
        "id_site": "('74c97def8e345d02e87a48d424b90891',)",
        "data": "2000-08-23",
        "projeto": 9,
        "local": "PLEN\u00c1RIO ( PLEN )",
        "descricao": "Publica\u00e7\u00e3o Inicial DCD24 08 00 PAG 44995. Inteiro teor"
    }
},
{
    "model": "main.tramitacao",
    "pk": 80,
    "fields": {
        "id_site": "('baf46fb77405a8c011958a264ff42385',)",
        "data": "2000-08-23",
        "projeto": 9,
        "local": "Mesa Diretora da C\u00e2mara dos Deputados ( MESA )",
        "descricao": "A CDCMAM E CCJR - ARTIGO 24,II.(DESPACHO INICIAL)"
    }
},
{
    "model": "main.tramitacao",
    "pk": 81,
    "fields": {
        "id_site": "('be14dbae679131d3ea505658410742f4',)",
        "data": "2000-08-22",
        "projeto": 9,
        "local": "PLEN\u00c1RIO ( PLEN )",
        "descricao": "Apresenta\u00e7\u00e3o do Projeto de Lei pelo Senado Federal - L\u00facio Alc\u00e2ntara Inteiro teor"
    }
},
{
    "model": "main.tramitacao",
    "pk": 82,
    "fields": {
        "id_site": "('2ba205149d513f31d20c4bc684acfef9',)",
        "data": "2017-04-06",
        "projeto": 10,
        "local": "Comiss\u00e3o de Ci\u00eancia e Tecnologia, Comunica\u00e7\u00e3o e Inform\u00e1tica ( CCTCI )",
        "descricao": "Designado Relator, Dep. Veneziano Vital do R\u00eago (PMDB-PB)"
    }
},
{
    "model": "main.tramitacao",
    "pk": 83,
    "fields": {
        "id_site": "('f9db7454781f747b22e5b86ea94f1bd6',)",
        "data": "2016-11-17",
        "projeto": 10,
        "local": "COORDENA\u00c7\u00c3O DE COMISS\u00d5ES PERMANENTES ( CCP )",
        "descricao": "Encaminhada \u00e0 publica\u00e7\u00e3o. Parecer da Comiss\u00e3o de Seguran\u00e7a P\u00fablica e Combate ao Crime Organizado publicado no DCD de 18/11/16 P\u00c1G 176 COL 01, Letra A. Inteiro teor"
    }
},
{
    "model": "main.tramitacao",
    "pk": 84,
    "fields": {
        "id_site": "('d26b9fbb2735ca4da0a4c9d6bdda59c6',)",
        "data": "2016-11-17",
        "projeto": 10,
        "local": "Comiss\u00e3o de Ci\u00eancia e Tecnologia, Comunica\u00e7\u00e3o e Inform\u00e1tica ( CCTCI )",
        "descricao": "Recebimento pela CCTCI."
    }
},
{
    "model": "main.tramitacao",
    "pk": 85,
    "fields": {
        "id_site": "('5d0f4ed7746942028ab5ad4147ac03ae',)",
        "data": "2016-11-16",
        "projeto": 10,
        "local": "Comiss\u00e3o de Seguran\u00e7a P\u00fablica e Combate ao Crime Organizado ( CSPCCO ) - 14:00 Reuni\u00e3o Deliberativa Ordin\u00e1ria",
        "descricao": "Aprovado o Parecer."
    }
},
{
    "model": "main.tramitacao",
    "pk": 86,
    "fields": {
        "id_site": "('27587d0b3babdb62d9324b97a4cb056e',)",
        "data": "2016-11-09",
        "projeto": 10,
        "local": "Comiss\u00e3o de Seguran\u00e7a P\u00fablica e Combate ao Crime Organizado ( CSPCCO ) - 14:00 Reuni\u00e3o Deliberativa Ordin\u00e1ria",
        "descricao": "Retirado de pauta, por aus\u00eancia moment\u00e2nea do relator."
    }
},
{
    "model": "main.tramitacao",
    "pk": 87,
    "fields": {
        "id_site": "('ea91185affc2b78ef226be0b77ac5ecc',)",
        "data": "2016-11-07",
        "projeto": 10,
        "local": "Comiss\u00e3o de Seguran\u00e7a P\u00fablica e Combate ao Crime Organizado ( CSPCCO )",
        "descricao": "Apresenta\u00e7\u00e3o do Parecer do Relator n. 2 CSPCCO, pelo Deputado Alexandre Baldy (PTN-GO). Inteiro teor Parecer do Relator, Dep. Alexandre Baldy (PTN-GO), pela aprova\u00e7\u00e3o, com emenda. Inteiro teor"
    }
},
{
    "model": "main.tramitacao",
    "pk": 88,
    "fields": {
        "id_site": "('e4ffb8f528835f9260e2dedd7700a3b3',)",
        "data": "2016-09-20",
        "projeto": 10,
        "local": "Comiss\u00e3o de Seguran\u00e7a P\u00fablica e Combate ao Crime Organizado ( CSPCCO )",
        "descricao": "Devolvido ao Relator, Dep. Alexandre Baldy (PTN-GO), a pedido."
    }
},
{
    "model": "main.tramitacao",
    "pk": 89,
    "fields": {
        "id_site": "('091f39fef0387a315fd65f96699ab3cf',)",
        "data": "2016-09-20",
        "projeto": 10,
        "local": "Comiss\u00e3o de Seguran\u00e7a P\u00fablica e Combate ao Crime Organizado ( CSPCCO ) - 09:30 Reuni\u00e3o Deliberativa Ordin\u00e1ria",
        "descricao": "Retirado de pauta a requerimento do deputado Rocha."
    }
},
{
    "model": "main.tramitacao",
    "pk": 90,
    "fields": {
        "id_site": "('91c3216e65c64bd978402638070139c3',)",
        "data": "2016-09-13",
        "projeto": 10,
        "local": "Comiss\u00e3o de Seguran\u00e7a P\u00fablica e Combate ao Crime Organizado ( CSPCCO ) - 09:30 Reuni\u00e3o Deliberativa Ordin\u00e1ria",
        "descricao": "Retirado de pauta, com anu\u00eancia do plen\u00e1rio."
    }
},
{
    "model": "main.tramitacao",
    "pk": 91,
    "fields": {
        "id_site": "('a650fb5239d21fc433a7cea9c090e240',)",
        "data": "2016-08-02",
        "projeto": 10,
        "local": "Comiss\u00e3o de Seguran\u00e7a P\u00fablica e Combate ao Crime Organizado ( CSPCCO )",
        "descricao": "Apresenta\u00e7\u00e3o do Parecer do Relator n. 1 CSPCCO, pelo Deputado Alexandre Baldy (PTN-GO). Inteiro teor Parecer do Relator, Dep. Alexandre Baldy (PTN-GO), pela aprova\u00e7\u00e3o. Inteiro teor"
    }
},
{
    "model": "main.tramitacao",
    "pk": 92,
    "fields": {
        "id_site": "('ffcd2cdf54441565e2b0de8e6d0a4419',)",
        "data": "2016-06-02",
        "projeto": 10,
        "local": "Comiss\u00e3o de Seguran\u00e7a P\u00fablica e Combate ao Crime Organizado ( CSPCCO )",
        "descricao": "Designado Relator, Dep. Alexandre Baldy (PTN-GO)"
    }
},
{
    "model": "main.tramitacao",
    "pk": 93,
    "fields": {
        "id_site": "('a552db5aad133434d7b63f81e09b9f8a',)",
        "data": "2016-05-20",
        "projeto": 10,
        "local": "COORDENA\u00c7\u00c3O DE COMISS\u00d5ES PERMANENTES ( CCP )",
        "descricao": "Encaminhada \u00e0 publica\u00e7\u00e3o. Publica\u00e7\u00e3o Inicial em avulso e no DCD de 21/05/16 P\u00c1G 50 COL 01. Inteiro teor"
    }
},
{
    "model": "main.tramitacao",
    "pk": 94,
    "fields": {
        "id_site": "('f36ed0a0670525661f91e4fe09f6abc3',)",
        "data": "2016-05-20",
        "projeto": 10,
        "local": "Comiss\u00e3o de Seguran\u00e7a P\u00fablica e Combate ao Crime Organizado ( CSPCCO )",
        "descricao": "Recebimento pela CSPCCO."
    }
},
{
    "model": "main.tramitacao",
    "pk": 95,
    "fields": {
        "id_site": "('aff723ee2f8f9231173da3e52e54b5eb',)",
        "data": "2016-05-18",
        "projeto": 10,
        "local": "Mesa Diretora da C\u00e2mara dos Deputados ( MESA )",
        "descricao": "\u00c0s Comiss\u00f5es de Seguran\u00e7a P\u00fablica e Combate ao Crime Organizado; Ci\u00eancia e Tecnologia, Comunica\u00e7\u00e3o e Inform\u00e1tica; Finan\u00e7as e Tributa\u00e7\u00e3o (Art. 54 RICD) e Constitui\u00e7\u00e3o e Justi\u00e7a e de Cidadania (Art. 54 RICD)Proposi\u00e7\u00e3o Sujeita \u00e0 Aprecia\u00e7\u00e3o do Plen\u00e1rio. Regime de Tramita\u00e7\u00e3o: Ordin\u00e1ria Inteiro teor"
    }
},
{
    "model": "main.tramitacao",
    "pk": 96,
    "fields": {
        "id_site": "('e8840d5207d99acc07ac938c58fd90c0',)",
        "data": "2016-05-06",
        "projeto": 10,
        "local": "PLEN\u00c1RIO ( PLEN )",
        "descricao": "Apresenta\u00e7\u00e3o do Projeto de Lei n. 5201/2016, pela Comiss\u00e3o Parlamentar de Inqu\u00e9rito destinada a investigar a pr\u00e1tica de crimes cibern\u00e9ticos e seus efeitos delet\u00e9rios perante a economia e a sociedade neste pa\u00eds, tendo em vista (i) que a Pol\u00edcia Federal realizou em 2014 a opera\u00e7\u00e3o batizada de IB2K para desarticular uma quadrilha suspeita de desviar pela Internet mais de R$ 2 milh\u00f5es de correntistas de v\u00e1rios bancos, quadrilha esta que usava parte do dinheiro desviado para comprar armas e drogas; (ii) o \u00faltimo relat\u00f3rio da Central Nacional de Den\u00fancias de Crimes Cibern\u00e9ticos que aponta um crescimento, entre 2013 e 2014, de 192,93% nas den\u00fancias envolvendo p\u00e1ginas na Internet suspeitas de tr\u00e1fico de pessoas, e (iii) os gastos de US$ 15,3 bilh\u00f5es com crimes cibern\u00e9ticos no Brasil em 2010, que: \"Altera a Lei no 5.070, de 7 de julho de 1966, autorizando o uso dos recursos do Fistel por \u00f3rg\u00e3os da pol\u00edcia judici\u00e1ria\". Inteiro teor"
    }
},
{
    "model": "main.tramitacao",
    "pk": 97,
    "fields": {
        "id_site": "('58af6723e38524b37354544146bb4cfd',)",
        "data": "2016-12-13",
        "projeto": 11,
        "local": "PLEN\u00c1RIO ( PLEN )",
        "descricao": "Apresenta\u00e7\u00e3o do Requerimento de Desapensa\u00e7\u00e3o n. 5702/2016, pelo Deputado Julio Lopes (PP-RJ), que: \"Requer a desapensa\u00e7\u00e3o do PL n\u00ba 5.204, de 2016, do PL n\u00ba 5.130, de 2016\". Inteiro teor"
    }
},
{
    "model": "main.tramitacao",
    "pk": 98,
    "fields": {
        "id_site": "('cfaf2dd8aed8ad4decd2e782c95a9e64',)",
        "data": "2016-11-11",
        "projeto": 11,
        "local": "PLEN\u00c1RIO ( PLEN )",
        "descricao": "Apresenta\u00e7\u00e3o do Recurso contra apensa\u00e7\u00e3o/desapensa\u00e7\u00e3o de proposi\u00e7\u00e3o (Art. 142, I, RICD) n. 172/2016, pelo Deputado Aelton Freitas (PR-MG), que: \"Nos termos regimentais, recorremos da decis\u00e3o da Presid\u00eancia que indeferiu a desapensa\u00e7\u00e3o solicitada no Requerimento n\u00ba 5.333/2016\". Inteiro teor"
    }
},
{
    "model": "main.tramitacao",
    "pk": 99,
    "fields": {
        "id_site": "('4483190843e1196cf74ae978e13e8672',)",
        "data": "2016-11-04",
        "projeto": 11,
        "local": "Mesa Diretora da C\u00e2mara dos Deputados ( MESA )",
        "descricao": "Indeferido o Requerimento n. 5.333/2016, conforme despacho de seguinte teor: \"Indefiro o Requerimento n. 5.333/2016, nos termos do art. 142, caput, do Regimento Interno da C\u00e2mara dos Deputados, porque os Projetos de Lei n. 5.130/2016 e 5.204/2016 tratam de mat\u00e9rias correlatas. Publique-se. Oficie-se\"."
    }
},
{
    "model": "main.tramitacao",
    "pk": 100,
    "fields": {
        "id_site": "('a714e82564a0f28a127faf1f3efa3175',)",
        "data": "2016-10-20",
        "projeto": 11,
        "local": "Mesa Diretora da C\u00e2mara dos Deputados ( MESA )",
        "descricao": "Indeferido o Requerimento n. 5.281/2016, conforme despacho do seguinte teor: \"Indefiro o Requerimento n. 5.281/2016, nos termos do art. 142, caput, do Regimento Interno da C\u00e2mara dos Deputados, porque os Projetos de Lei n. 5.204/2016, 5.172/2016 e 5.130/2016 tratam de mat\u00e9rias correlatas. Publique-se. Oficie-se ao primeiro subscritor.\""
    }
},
{
    "model": "main.tramitacao",
    "pk": 101,
    "fields": {
        "id_site": "('f2e0dae58cc7a9a3f7d07d1060558626',)",
        "data": "2016-10-11",
        "projeto": 11,
        "local": "PLEN\u00c1RIO ( PLEN )",
        "descricao": "Apresenta\u00e7\u00e3o do Requerimento de Desapensa\u00e7\u00e3o n. 5333/2016, pelo Deputado Aelton Freitas (PR-MG), que: \"Requer a desapensa\u00e7\u00e3o do PL n\u00ba 5.204, de 2016, do PL n\u00ba 5.130, de 2016\". Inteiro teor"
    }
},
{
    "model": "main.tramitacao",
    "pk": 102,
    "fields": {
        "id_site": "('aa0e5d81a280b49f12c91348fc86ce0b',)",
        "data": "2016-10-05",
        "projeto": 11,
        "local": "PLEN\u00c1RIO ( PLEN )",
        "descricao": "Apresenta\u00e7\u00e3o do Requerimento de Desapensa\u00e7\u00e3o n. 5281/2016, pelo Deputado Fernando Francischini (SD-PR), que: \"Requer a desapensa\u00e7\u00e3o do Projeto de Lei sob o n\u00ba 5.204/2016 do Projeto de Lei n\u00ba 5.130/2016\". Inteiro teor"
    }
},
{
    "model": "main.tramitacao",
    "pk": 103,
    "fields": {
        "id_site": "('111703ff18ab498a537b3ecb7d5fb037',)",
        "data": "2016-05-19",
        "projeto": 11,
        "local": "COORDENA\u00c7\u00c3O DE COMISS\u00d5ES PERMANENTES ( CCP )",
        "descricao": "Encaminhada \u00e0 publica\u00e7\u00e3o. Publica\u00e7\u00e3o Inicial em avulso e no DCD de 20/05/16 P\u00c1G 282 COL 01. Inteiro teor"
    }
},
{
    "model": "main.tramitacao",
    "pk": 104,
    "fields": {
        "id_site": "('6186b61d9277b9783ba97624066048ba',)",
        "data": "2016-05-19",
        "projeto": 11,
        "local": "Comiss\u00e3o de Ci\u00eancia e Tecnologia, Comunica\u00e7\u00e3o e Inform\u00e1tica ( CCTCI )",
        "descricao": "Recebimento pela CCTCI, apensado ao PL-5172/2016"
    }
},
{
    "model": "main.tramitacao",
    "pk": 105,
    "fields": {
        "id_site": "('745b3c13034d8ff018387c9c0523ae3c',)",
        "data": "2016-05-18",
        "projeto": 11,
        "local": "Mesa Diretora da C\u00e2mara dos Deputados ( MESA )",
        "descricao": "Apense-se \u00e0(ao) PL-5172/2016. Proposi\u00e7\u00e3o Sujeita \u00e0 Aprecia\u00e7\u00e3o do Plen\u00e1rio. Regime de Tramita\u00e7\u00e3o: Ordin\u00e1ria Inteiro teor"
    }
},
{
    "model": "main.tramitacao",
    "pk": 106,
    "fields": {
        "id_site": "('603dbe9d1708ae2f984176d3fe789c34',)",
        "data": "2016-05-06",
        "projeto": 11,
        "local": "PLEN\u00c1RIO ( PLEN )",
        "descricao": "Apresenta\u00e7\u00e3o do Projeto de Lei n. 5204/2016, pela Comiss\u00e3o Parlamentar de Inqu\u00e9rito destinada a investigar a pr\u00e1tica de crimes cibern\u00e9ticos e seus efeitos delet\u00e9rios perante a economia e a sociedade neste pa\u00eds, tendo em vista (i) que a Pol\u00edcia Federal realizou em 2014 a opera\u00e7\u00e3o batizada de IB2K para desarticular uma quadrilha suspeita de desviar pela Internet mais de R$ 2 milh\u00f5es de correntistas de v\u00e1rios bancos, quadrilha esta que usava parte do dinheiro desviado para comprar armas e drogas; (ii) o \u00faltimo relat\u00f3rio da Central Nacional de Den\u00fancias de Crimes Cibern\u00e9ticos que aponta um crescimento, entre 2013 e 2014, de 192,93% nas den\u00fancias envolvendo p\u00e1ginas na Internet suspeitas de tr\u00e1fico de pessoas, e (iii) os gastos de US$ 15,3 bilh\u00f5es com crimes cibern\u00e9ticos no Brasil em 2010, que: \"Possibilita o bloqueio a aplica\u00e7\u00f5es de internet por ordem judicial, nos casos em que especifica\". Inteiro teor"
    }
},
{
    "model": "main.tramitacao",
    "pk": 107,
    "fields": {
        "id_site": "('627c99d44b2bd435464b5f1af2174bfb',)",
        "data": "2016-05-24",
        "projeto": 12,
        "local": "Comiss\u00e3o de Ci\u00eancia e Tecnologia, Comunica\u00e7\u00e3o e Inform\u00e1tica ( CCTCI )",
        "descricao": "Designado Relator, Dep. Sandro Alex (PSD-PR)"
    }
},
{
    "model": "main.tramitacao",
    "pk": 108,
    "fields": {
        "id_site": "('d68f03388f657169d29f91c2afdaad8d',)",
        "data": "2016-05-20",
        "projeto": 12,
        "local": "COORDENA\u00c7\u00c3O DE COMISS\u00d5ES PERMANENTES ( CCP )",
        "descricao": "Encaminhada \u00e0 publica\u00e7\u00e3o. Publica\u00e7\u00e3o Inicial em avulso e no DCD de 21/05/16 P\u00c1G 52 COL 01. Inteiro teor"
    }
},
{
    "model": "main.tramitacao",
    "pk": 109,
    "fields": {
        "id_site": "('e6fafac9ea038bd5dab0c394999b12cc',)",
        "data": "2016-05-20",
        "projeto": 12,
        "local": "Comiss\u00e3o de Ci\u00eancia e Tecnologia, Comunica\u00e7\u00e3o e Inform\u00e1tica ( CCTCI )",
        "descricao": "Recebimento pela CCTCI."
    }
},
{
    "model": "main.tramitacao",
    "pk": 110,
    "fields": {
        "id_site": "('735fea32a7dba34af1d985fcb57dccbb',)",
        "data": "2016-05-18",
        "projeto": 12,
        "local": "Mesa Diretora da C\u00e2mara dos Deputados ( MESA )",
        "descricao": "\u00c0s Comiss\u00f5es de Ci\u00eancia e Tecnologia, Comunica\u00e7\u00e3o e Inform\u00e1tica e Constitui\u00e7\u00e3o e Justi\u00e7a e de Cidadania (M\u00e9rito e Art. 54, RICD)Proposi\u00e7\u00e3o Sujeita \u00e0 Aprecia\u00e7\u00e3o do Plen\u00e1rio. Regime de Tramita\u00e7\u00e3o: Ordin\u00e1ria Inteiro teor"
    }
},
{
    "model": "main.tramitacao",
    "pk": 111,
    "fields": {
        "id_site": "('2722ab95da487df2119e2cd0b252c0d4',)",
        "data": "2016-05-06",
        "projeto": 12,
        "local": "PLEN\u00c1RIO ( PLEN )",
        "descricao": "Apresenta\u00e7\u00e3o do Projeto de Lei n. 5203/2016, pela Comiss\u00e3o Parlamentar de Inqu\u00e9rito destinada a investigar a pr\u00e1tica de crimes cibern\u00e9ticos e seus efeitos delet\u00e9rios perante a economia e a sociedade neste pa\u00eds, tendo em vista (i) que a Pol\u00edcia Federal realizou em 2014 a opera\u00e7\u00e3o batizada de IB2K para desarticular uma quadrilha suspeita de desviar pela Internet mais de R$ 2 milh\u00f5es de correntistas de v\u00e1rios bancos, quadrilha esta que usava parte do dinheiro desviado para comprar armas e drogas; (ii) o \u00faltimo relat\u00f3rio da Central Nacional de Den\u00fancias de Crimes Cibern\u00e9ticos que aponta um crescimento, entre 2013 e 2014, de 192,93% nas den\u00fancias envolvendo p\u00e1ginas na Internet suspeitas de tr\u00e1fico de pessoas, e (iii) os gastos de US$ 15,3 bilh\u00f5es com crimes cibern\u00e9ticos no Brasil em 2010, que: \"Altera o Marco Civil da Internet, Lei no 12.965, de 23 de abril de 2014, determinando a indisponibilidade de c\u00f3pia id\u00eantica de conte\u00fado reconhecido como infringente, sem a necessidade de nova ordem judicial e d\u00e1 outras provid\u00eancias\". Inteiro teor"
    }
},
{
    "model": "main.tramitacao",
    "pk": 112,
    "fields": {
        "id_site": "('936d83a94c71e1676f891d44b989b376',)",
        "data": "2016-10-06",
        "projeto": 13,
        "local": "Comiss\u00e3o de Constitui\u00e7\u00e3o e Justi\u00e7a e de Cidadania ( CCJC )",
        "descricao": "Recebimento pela CCJC, apensado ao PL-4093/2015"
    }
},
{
    "model": "main.tramitacao",
    "pk": 113,
    "fields": {
        "id_site": "('3f31d0d497456609c3630c712baf7bd3',)",
        "data": "2016-05-19",
        "projeto": 13,
        "local": "COORDENA\u00c7\u00c3O DE COMISS\u00d5ES PERMANENTES ( CCP )",
        "descricao": "Encaminhada \u00e0 publica\u00e7\u00e3o. Publica\u00e7\u00e3o Inicial em avulso e no DCD de 20/05/16 P\u00c1G 280 COL 01. Inteiro teor"
    }
},
{
    "model": "main.tramitacao",
    "pk": 114,
    "fields": {
        "id_site": "('58329030d13007219b288d22038119be',)",
        "data": "2016-05-19",
        "projeto": 13,
        "local": "Comiss\u00e3o de Ci\u00eancia e Tecnologia, Comunica\u00e7\u00e3o e Inform\u00e1tica ( CCTCI )",
        "descricao": "Recebimento pela CCTCI."
    }
},
{
    "model": "main.tramitacao",
    "pk": 115,
    "fields": {
        "id_site": "('20a24edbd1ded2166a202b1e0ed58469',)",
        "data": "2016-05-18",
        "projeto": 13,
        "local": "Mesa Diretora da C\u00e2mara dos Deputados ( MESA )",
        "descricao": "Apense-se \u00e0(ao) PL-4093/2015. Proposi\u00e7\u00e3o Sujeita \u00e0 Aprecia\u00e7\u00e3o do Plen\u00e1rio. Regime de Tramita\u00e7\u00e3o: Ordin\u00e1ria Inteiro teor"
    }
},
{
    "model": "main.tramitacao",
    "pk": 116,
    "fields": {
        "id_site": "('5c42cc764183c4cffbaeef1e10e38766',)",
        "data": "2016-05-06",
        "projeto": 13,
        "local": "PLEN\u00c1RIO ( PLEN )",
        "descricao": "Apresenta\u00e7\u00e3o do Projeto de Lei n. 5200/2016, pela Comiss\u00e3o Parlamentar de Inqu\u00e9rito destinada a investigar a pr\u00e1tica de crimes cibern\u00e9ticos e seus efeitos delet\u00e9rios perante a economia e a sociedade neste pa\u00eds, tendo em vista (i) que a Pol\u00edcia Federal realizou em 2014 a opera\u00e7\u00e3o batizada de IB2K para desarticular uma quadrilha suspeita de desviar pela Internet mais de R$ 2 milh\u00f5es de correntistas de v\u00e1rios bancos, quadrilha esta que usava parte do dinheiro desviado para comprar armas e drogas; (ii) o \u00faltimo relat\u00f3rio da Central Nacional de Den\u00fancias de Crimes Cibern\u00e9ticos que aponta um crescimento, entre 2013 e 2014, de 192,93% nas den\u00fancias envolvendo p\u00e1ginas na Internet suspeitas de tr\u00e1fico de pessoas, e (iii) os gastos de US$ 15,3 bilh\u00f5es com crimes cibern\u00e9ticos no Brasil em 2010, que: \"Altera a reda\u00e7\u00e3o do art. 154-A do Decreto-Lei n\u00ba 2.848, de 7 de dezembro de 1940, para ampliar a abrang\u00eancia do crime de invas\u00e3o de dispositivo inform\u00e1tico\". Inteiro teor"
    }
},
{
    "model": "main.tramitacao",
    "pk": 117,
    "fields": {
        "id_site": "('8249a2a629991f613c694c68b6b7b759',)",
        "data": "2017-04-05",
        "projeto": 14,
        "local": "Comiss\u00e3o de Constitui\u00e7\u00e3o e Justi\u00e7a e de Cidadania ( CCJC )",
        "descricao": "Encerrado o prazo para emendas ao projeto. N\u00e3o foram apresentadas emendas."
    }
},
{
    "model": "main.tramitacao",
    "pk": 118,
    "fields": {
        "id_site": "('1e940698588b12d49a3242e2f9c9ea79',)",
        "data": "2016-12-22",
        "projeto": 14,
        "local": "Comiss\u00e3o de Constitui\u00e7\u00e3o e Justi\u00e7a e de Cidadania ( CCJC )",
        "descricao": "Prazo para Emendas ao Projeto (5 sess\u00f5es a partir de 23/12/2016)"
    }
},
{
    "model": "main.tramitacao",
    "pk": 119,
    "fields": {
        "id_site": "('5fd716c8b6895c35e24aadeb2e2dfec6',)",
        "data": "2016-12-21",
        "projeto": 14,
        "local": "Comiss\u00e3o de Constitui\u00e7\u00e3o e Justi\u00e7a e de Cidadania ( CCJC )",
        "descricao": "Designado Relator, Dep. Jo\u00e3o Campos (PRB-GO)"
    }
},
{
    "model": "main.tramitacao",
    "pk": 120,
    "fields": {
        "id_site": "('6d85df18a29b753b241f857e2b33f80c',)",
        "data": "2016-09-01",
        "projeto": 14,
        "local": "COORDENA\u00c7\u00c3O DE COMISS\u00d5ES PERMANENTES ( CCP )",
        "descricao": "Encaminhada \u00e0 publica\u00e7\u00e3o. Parecer da Comiss\u00e3o de Ci\u00eancia e Tecnologia, Comunica\u00e7\u00e3o e Inform\u00e1tica Publicado em avulso e no DCD de 02/09/16 P\u00c1G 73 COL 01, Letra A. Inteiro teor"
    }
},
{
    "model": "main.tramitacao",
    "pk": 121,
    "fields": {
        "id_site": "('bc9666a2864799a727fcf5fc9ff67e67',)",
        "data": "2016-08-31",
        "projeto": 14,
        "local": "COORDENA\u00c7\u00c3O DE COMISS\u00d5ES PERMANENTES ( CCP )",
        "descricao": "Parecer recebido para publica\u00e7\u00e3o."
    }
},
{
    "model": "main.tramitacao",
    "pk": 122,
    "fields": {
        "id_site": "('06235545e0ee65bdf7183dec91e90d16',)",
        "data": "2016-08-31",
        "projeto": 14,
        "local": "Comiss\u00e3o de Constitui\u00e7\u00e3o e Justi\u00e7a e de Cidadania ( CCJC )",
        "descricao": "Recebimento pela CCJC."
    }
},
{
    "model": "main.tramitacao",
    "pk": 123,
    "fields": {
        "id_site": "('fe74311beb3f52bc185163912e7874f5',)",
        "data": "2016-08-30",
        "projeto": 14,
        "local": "Comiss\u00e3o de Ci\u00eancia e Tecnologia, Comunica\u00e7\u00e3o e Inform\u00e1tica ( CCTCI ) - 10:00 Reuni\u00e3o Deliberativa Ordin\u00e1ria",
        "descricao": "Aprovado por Unanimidade o Parecer."
    }
},
{
    "model": "main.tramitacao",
    "pk": 124,
    "fields": {
        "id_site": "('9faf9eb6546586d0b8ae16322c106baa',)",
        "data": "2016-07-13",
        "projeto": 14,
        "local": "Comiss\u00e3o de Ci\u00eancia e Tecnologia, Comunica\u00e7\u00e3o e Inform\u00e1tica ( CCTCI ) - 10:15 Reuni\u00e3o Deliberativa Extraordin\u00e1ria",
        "descricao": "Retirado de pauta de of\u00edcio, pela aus\u00eancia do relator."
    }
},
{
    "model": "main.tramitacao",
    "pk": 125,
    "fields": {
        "id_site": "('211ea71b17eeee7e5fbc44755e1c5b76',)",
        "data": "2016-06-01",
        "projeto": 14,
        "local": "Comiss\u00e3o de Ci\u00eancia e Tecnologia, Comunica\u00e7\u00e3o e Inform\u00e1tica ( CCTCI )",
        "descricao": "Aprovado requerimento do Sr. Sib\u00e1 Machado que requer a realiza\u00e7\u00e3o de audi\u00eancia p\u00fablica para debater o Projeto de Lei 3237/2015, que altera o Marco Civil da Internet, Lei n. 12.965, de 23 de abril de 2014, dispondo sobre a guarda dos registros de conex\u00e3o \u00e0 internet de sistema aut\u00f4nomo."
    }
},
{
    "model": "main.tramitacao",
    "pk": 126,
    "fields": {
        "id_site": "('1910146d2796c516c1727673c21c61db',)",
        "data": "2016-06-01",
        "projeto": 14,
        "local": "Comiss\u00e3o de Ci\u00eancia e Tecnologia, Comunica\u00e7\u00e3o e Inform\u00e1tica ( CCTCI ) - 10:00 Reuni\u00e3o Deliberativa Ordin\u00e1ria",
        "descricao": "Retirado de pauta a requerimento do deputado Sib\u00e1 Machado."
    }
},
{
    "model": "main.tramitacao",
    "pk": 127,
    "fields": {
        "id_site": "('723a5cee31bc47a2162c01f8008bed53',)",
        "data": "2016-05-31",
        "projeto": 14,
        "local": "Comiss\u00e3o de Ci\u00eancia e Tecnologia, Comunica\u00e7\u00e3o e Inform\u00e1tica ( CCTCI )",
        "descricao": "Apresenta\u00e7\u00e3o do Parecer do Relator, PRL 2 CCTCI, pelo Dep. F\u00e1bio Sousa Inteiro teor Parecer do Relator, Dep. F\u00e1bio Sousa (PSDB-GO), pela aprova\u00e7\u00e3o deste, com emenda, e pela rejei\u00e7\u00e3o da Emenda 1/2015 da CCTCI. Inteiro teor"
    }
},
{
    "model": "main.tramitacao",
    "pk": 128,
    "fields": {
        "id_site": "('6bc38731c16972f61674eb74a1c805ad',)",
        "data": "2016-05-18",
        "projeto": 14,
        "local": "Comiss\u00e3o de Ci\u00eancia e Tecnologia, Comunica\u00e7\u00e3o e Inform\u00e1tica ( CCTCI ) - 10:00 Reuni\u00e3o Deliberativa Ordin\u00e1ria",
        "descricao": "Retirado de pauta a requerimento do deputado Sib\u00e1 Machado."
    }
},
{
    "model": "main.tramitacao",
    "pk": 129,
    "fields": {
        "id_site": "('74d4cd9aea05f34ea005c9187984aef6',)",
        "data": "2016-05-17",
        "projeto": 14,
        "local": "Comiss\u00e3o de Ci\u00eancia e Tecnologia, Comunica\u00e7\u00e3o e Inform\u00e1tica ( CCTCI )",
        "descricao": "Apresenta\u00e7\u00e3o do Requerimento de Audi\u00eancia P\u00fablica n. 148/2016, pelo Deputado Sib\u00e1 Machado (PT-AC), que: \"Requer a realiza\u00e7\u00e3o de audi\u00eancia p\u00fablica para debater o Projeto de Lei 3237/2015, que altera o Marco Civil da Internet, Lei n. 12.965, de 23 de abril de 2014, dispondo sobre a guarda dos registros de conex\u00e3o \u00e0 internet de sistema aut\u00f4nomo\". Inteiro teor Prazo de Vista Encerrado"
    }
},
{
    "model": "main.tramitacao",
    "pk": 130,
    "fields": {
        "id_site": "('f014ef3c2fca65f0e0cad0ce7200bf70',)",
        "data": "2016-05-11",
        "projeto": 14,
        "local": "Comiss\u00e3o de Ci\u00eancia e Tecnologia, Comunica\u00e7\u00e3o e Inform\u00e1tica ( CCTCI ) - 10:00 Reuni\u00e3o Deliberativa Ordin\u00e1ria",
        "descricao": "Vista ao Deputado Sib\u00e1 Machado."
    }
},
{
    "model": "main.tramitacao",
    "pk": 131,
    "fields": {
        "id_site": "('ba4a1f6b5d2c311065e4913c204f1552',)",
        "data": "2015-12-16",
        "projeto": 14,
        "local": "Comiss\u00e3o de Ci\u00eancia e Tecnologia, Comunica\u00e7\u00e3o e Inform\u00e1tica ( CCTCI ) - 10:00 Reuni\u00e3o Deliberativa Ordin\u00e1ria",
        "descricao": "Retirado de pauta a requerimento do deputado Paul\u00e3o."
    }
},
{
    "model": "main.tramitacao",
    "pk": 132,
    "fields": {
        "id_site": "('4b8c1fefed0dc766a427f4d05d373106',)",
        "data": "2015-12-07",
        "projeto": 14,
        "local": "Comiss\u00e3o de Ci\u00eancia e Tecnologia, Comunica\u00e7\u00e3o e Inform\u00e1tica ( CCTCI )",
        "descricao": "Apresenta\u00e7\u00e3o do Parecer do Relator n. 1 CCTCI, pelo Deputado F\u00e1bio Sousa (PSDB-GO). Inteiro teor Parecer do Relator, Dep. F\u00e1bio Sousa (PSDB-GO), pela aprova\u00e7\u00e3o deste, e pela rejei\u00e7\u00e3o da Emenda 1/2015 da CCTCI. Inteiro teor"
    }
},
{
    "model": "main.tramitacao",
    "pk": 133,
    "fields": {
        "id_site": "('fdb777d1295355ce7291de2db7e66de7',)",
        "data": "2015-11-04",
        "projeto": 14,
        "local": "Comiss\u00e3o de Ci\u00eancia e Tecnologia, Comunica\u00e7\u00e3o e Inform\u00e1tica ( CCTCI )",
        "descricao": "Encerrado o prazo para emendas ao projeto. Foi apresentada uma emenda."
    }
},
{
    "model": "main.tramitacao",
    "pk": 134,
    "fields": {
        "id_site": "('82fc71338ff068ec16bc8f994d4b66bd',)",
        "data": "2015-10-22",
        "projeto": 14,
        "local": "Comiss\u00e3o de Ci\u00eancia e Tecnologia, Comunica\u00e7\u00e3o e Inform\u00e1tica ( CCTCI )",
        "descricao": "Prazo para Emendas ao Projeto (5 sess\u00f5es a partir de 23/10/2015)"
    }
},
{
    "model": "main.tramitacao",
    "pk": 135,
    "fields": {
        "id_site": "('192861a5cd29ce70039cabf517ba6e81',)",
        "data": "2015-10-21",
        "projeto": 14,
        "local": "Comiss\u00e3o de Ci\u00eancia e Tecnologia, Comunica\u00e7\u00e3o e Inform\u00e1tica ( CCTCI )",
        "descricao": "Designado Relator, Dep. F\u00e1bio Sousa (PSDB-GO)"
    }
},
{
    "model": "main.tramitacao",
    "pk": 136,
    "fields": {
        "id_site": "('e458a8b1d91dba223009eefb2dbfb95d',)",
        "data": "2015-10-20",
        "projeto": 14,
        "local": "Comiss\u00e3o de Ci\u00eancia e Tecnologia, Comunica\u00e7\u00e3o e Inform\u00e1tica ( CCTCI )",
        "descricao": "Recebimento pela CCTCI."
    }
},
{
    "model": "main.tramitacao",
    "pk": 137,
    "fields": {
        "id_site": "('86ad42af0004e93c5b2bb5f20dbb2200',)",
        "data": "2015-10-20",
        "projeto": 14,
        "local": "COORDENA\u00c7\u00c3O DE COMISS\u00d5ES PERMANENTES ( CCP )",
        "descricao": "Encaminhada \u00e0 publica\u00e7\u00e3o. Publica\u00e7\u00e3o Inicial em avulso e no DCD de 21/10/15 P\u00c1G 421 COL 01. Inteiro teor"
    }
},
{
    "model": "main.tramitacao",
    "pk": 138,
    "fields": {
        "id_site": "('6da0ac4bc464800c6289a6d42b0d614e',)",
        "data": "2015-10-16",
        "projeto": 14,
        "local": "Mesa Diretora da C\u00e2mara dos Deputados ( MESA )",
        "descricao": "\u00c0s Comiss\u00f5es de Ci\u00eancia e Tecnologia, Comunica\u00e7\u00e3o e Inform\u00e1tica e Constitui\u00e7\u00e3o e Justi\u00e7a e de Cidadania (Art. 54 RICD) - Art. 24, IIProposi\u00e7\u00e3o Sujeita \u00e0 Aprecia\u00e7\u00e3o Conclusiva pelas Comiss\u00f5es - Art. 24 II. Regime de Tramita\u00e7\u00e3o: Ordin\u00e1ria Inteiro teor"
    }
},
{
    "model": "main.tramitacao",
    "pk": 139,
    "fields": {
        "id_site": "('180684f75869db2a33aef09a9376b105',)",
        "data": "2015-10-07",
        "projeto": 14,
        "local": "PLEN\u00c1RIO ( PLEN )",
        "descricao": "Apresenta\u00e7\u00e3o do Projeto de Lei n. 3237/2015, pelo Deputado Vinicius Carvalho (PRB-SP), que: \"Altera o Marco Civil da Internet, Lei no 12.965, de 23 de abril de 2014, dispondo sobre a guarda dos registros de conex\u00e3o \u00e0 internet de sistema aut\u00f4nomo\". Inteiro teor"
    }
}
]
